{
  "locales": [
    {
      "locale": "Algeria - English",
      "lang": "en",
      "country": "Algeria"
    },
    {
      "locale": "India - English",
      "lang": "en",
      "country": "India"
    },
    {
      "locale": "Germany - German",
      "lang": "de",
      "country": "Germany"
    },
    {
      "locale": "Spain - Spanish",
      "lang": "es",
      "country": "Spanish"
    }
  ],
  "countries": [
    "Afghanistan",
    "Germany",
    "India",
    "Saudi Arabia"
  ],
  "visa-categories": [
    {
      "type": "Businessman visit",
      "id": 1
    },
    {
      "type": "Commercial visit",
      "id": 2
    },
    {
      "type": "Medical Private",
      "id": 3
    },
    {
      "type": "Medical Governament",
      "id": 4
    },
    {
      "type": "Travel / Tourism",
      "id": 5
    }
  ],
  "dates": [
    {
      "date": "11-06-2018",
      "day": "Monday",
      "holiday": {
        "isHoliday": true,
        "holidayDetail": "Id-ul-Fitr"
      },
      "weekend": false,
      "type": {
        "normal": false,
        "launge": false
      }
    },
    {
      "date": "12-06-2018",
      "day": "Tueday",
      "holiday": {
        "isHoliday": false
      },
      "weekend": false,
      "type": {
        "normal": true,
        "launge": true
      }
    },
    {
      "date": "13-06-2018",
      "day": "WednesDay",
      "holiday": {
        "isHoliday": false
      },
      "weekend": false,
      "type": {
        "normal": true,
        "launge": true
      }
    },
    {
      "date": "14-06-2018",
      "day": "ThursDay",
      "holiday": {
        "isHoliday": false
      },
      "weekend": false,
      "type": {
        "normal": true,
        "launge": true
      }
    },
    {
      "date": "15-06-2018",
      "day": "Friday",
      "holiday": {
        "isHoliday": false
      },
      "weekend": true,
      "type": {
        "normal": false,
        "launge": false
      }
    },
    {
      "date": "16-06-2018",
      "day": "SaturDay",
      "holiday": {
        "isHoliday": false
      },
      "weekend": true,
      "type": {
        "normal": false,
        "launge": false
      }
    }
  ],
  "slots": [
    {
      "slotTime": "9:30 AM",
      "available": false
    },
    {
      "slotTime": "9:45 AM",
      "available": true
    },
    {
      "slotTime": "10:00 AM",
      "available": false
    },
    {
      "slotTime": "10:15 AM",
      "available": false
    },
    {
      "slotTime": "10:30 AM",
      "available": false
    },
    {
      "slotTime": "10:45 AM",
      "available": true
    },
    {
      "slotTime": "11:00 AM",
      "available": false
    },
    {
      "slotTime": "11:15 AM",
      "available": false
    },
    {
      "slotTime": "11:30 AM",
      "available": true
    },
    {
      "slotTime": "12:00 PM",
      "available": true
    },
    {
      "slotTime": "12:15 PM",
      "available": true
    },
    {
      "slotTime": "12:30 PM",
      "available": true
    }
  ],
  "service-centers": [
    {
      "id": 1,
      "city": "Algiers",
      "center": "Algiers",
      "normal": "12 June",
      "lounge": "12 June"
    },
    {
      "id": 2,
      "city": "Oran",
      "center": "Oran",
      "normal": "12 June",
      "lounge": "12 June"
    },
    {
      "id": 3,
      "city": "Constantine",
      "center": "Constantine",
      "normal": "12 June",
      "lounge": "12 June"
    }
  ]
}
